Tianyi’s Senior Honors Thesis
…
basal.matrix <- data.matrix(pooled.basal[ ,1:length(geneNames)])
classical.matrix <- data.matrix(pooled.classical[ ,1:length(geneNames)])
gene.pvals <- tibble(name = make.names(geneNames),
                     pval = rep(0, length(geneNames)))
  
for (i in 1:length(geneNames)) {
  basal.vector <- basal.matrix[ ,i]
  classical.vector <- classical.matrix[ ,i]
  gene.pvals$pval[i] <- wilcox.test(basal.vector, classical.vector)[["p.value"]]
}

gene.pvals

## # A tibble: 15,612 x 2
##    name        pval
##    <chr>      <dbl>
##  1 A1BG    2.61e- 1
##  2 A1CF    5.72e-27
##  3 A2M     3.42e- 1
##  4 A2ML1   1.01e- 6
##  5 A4GALT  7.49e-24
##  6 A4GNT   3.00e-10
##  7 AAAS    2.79e- 1
##  8 AACS    3.10e- 2
##  9 AADAC   2.20e-12
## 10 AADACL2 3.40e- 1
## # ... with 15,602 more rows
…
