Tianyiâ€™s Senior Honors Thesis
…
for (i in 1:num.common.genes) {
  gene.pvals.vector <- vector()
  for (j in 1:num.studies) {
    gene.pvals.vector[j] = gene.pvals[[j]]$pval[i]
  }
  log.10.gene.pvals <- log10(gene.pvals.vector)
  gene.sum.log.pvals$pval[i] <- sum(log.10.gene.pvals)
}

gene.sum.log.pvals

## # A tibble: 15,612 x 2
##    name      pval
##    <chr>    <dbl>
##  1 A1BG     -3.35
##  2 A1CF    -23.5 
##  3 A2M      -6.54
##  4 A2ML1   -21.4 
##  5 A4GALT  -22.7 
##  6 A4GNT   -15.2 
##  7 AAAS     -2.48
##  8 AACS     -4.05
##  9 AADAC   -13.7 
## 10 AADACL2  -1.44
## # ... with 15,602 more rows
…
